Access and analyse EOPF STAC Zarr data with R
…
The product is the “top level” Zarr asset, which contains the full Zarr product hierarchy. We can use zarr_overview() to get an overview of it, setting as_data_frame to TRUE so that we can see the entries in a data frame instead of printed directly to the console. Each entry is a Zarr array; we remove product_url from the path to get a better idea of what each array is. Since this is something we will want to do multiple times throughout the tutorial, we create a helper function for this.

derive_store_array <- function(store, product_url) {
  store |>
    mutate(array = str_remove(path, product_url)) |>
    relocate(array, .before = path)
}

zarr_store <- s2_l2a_product_url |>
  zarr_overview(as_data_frame = TRUE) |>
  derive_store_array(s2_l2a_product_url)

zarr_store

# A tibble: 124 × 8
   array           path  data_type endianness compressor dim   chunk_dim nchunks
   <chr>           <chr> <chr>     <chr>      <chr>      <lis> <list>    <list> 
 1 /conditions/ge… http… unicode2… little     blosc      <int> <int [1]> <dbl>  
 2 /conditions/ge… http… unicode96 little     blosc      <int> <int [1]> <dbl>  
 3 /conditions/ge… http… unicode96 little     blosc      <int> <int [1]> <dbl>  
 4 /conditions/ge… http… float64   little     blosc      <int> <int [1]> <dbl>  
 5 /conditions/ge… http… float64   little     blosc      <int> <int [2]> <dbl>  
 6 /conditions/ge… http… float64   little     blosc      <int> <int [3]> <dbl>  
 7 /conditions/ge… http… float64   little     blosc      <int> <int [5]> <dbl>  
 8 /conditions/ge… http… float32   little     blosc      <int> <int [1]> <dbl>  
 9 /conditions/ge… http… float32   little     blosc      <int> <int [1]> <dbl>  
10 /conditions/ma… http… uint8     <NA>       blosc      <int> <int [2]> <dbl>  
# ℹ 114 more rows
…
