More examples analysing EOPF STAC Zarr data with R
…
l2_ocn_url <- l2_ocn |>
  assets_select(asset_names = "product") |>
  assets_url()

l2_ocn_store <- l2_ocn_url |>
  zarr_overview(as_data_frame = TRUE) |>
  derive_store_array(l2_ocn_url)

l2_ocn_store

# A tibble: 114 × 8
   array           path  data_type endianness compressor dim   chunk_dim nchunks
   <chr>           <chr> <chr>     <chr>      <chr>      <lis> <list>    <list> 
 1 /osw/S01SIWOCN… http… float32   little     blosc      <int> <int [3]> <dbl>  
 2 /osw/S01SIWOCN… http… float32   little     blosc      <int> <int [2]> <dbl>  
 3 /osw/S01SIWOCN… http… float32   little     blosc      <int> <int [2]> <dbl>  
 4 /osw/S01SIWOCN… http… float32   little     blosc      <int> <int [2]> <dbl>  
 5 /osw/S01SIWOCN… http… float32   little     blosc      <int> <int [2]> <dbl>  
 6 /osw/S01SIWOCN… http… float32   little     blosc      <int> <int [2]> <dbl>  
 7 /osw/S01SIWOCN… http… float32   little     blosc      <int> <int [5]> <dbl>  
 8 /osw/S01SIWOCN… http… float32   little     blosc      <int> <int [5]> <dbl>  
 9 /osw/S01SIWOCN… http… float32   little     blosc      <int> <int [3]> <dbl>  
10 /osw/S01SIWOCN… http… float32   little     blosc      <int> <int [3]> <dbl>  
# ℹ 104 more rows
…
l2_lfr_url <- l2_lfr |>
  assets_select(asset_names = "product") |>
  assets_url()

l2_lfr_store <- l2_lfr_url |>
  zarr_overview(as_data_frame = TRUE) |>
  derive_store_array(l2_lfr_url)

l2_lfr_store

# A tibble: 46 × 8
   array           path  data_type endianness compressor dim   chunk_dim nchunks
   <chr>           <chr> <chr>     <chr>      <chr>      <lis> <list>    <list> 
 1 /conditions/ge… http… int32     little     blosc      <int> <int [2]> <dbl>  
 2 /conditions/ge… http… int32     little     blosc      <int> <int [2]> <dbl>  
 3 /conditions/ge… http… int32     little     blosc      <int> <int [2]> <dbl>  
 4 /conditions/ge… http… uint32    little     blosc      <int> <int [2]> <dbl>  
 5 /conditions/ge… http… int32     little     blosc      <int> <int [2]> <dbl>  
 6 /conditions/ge… http… uint32    little     blosc      <int> <int [2]> <dbl>  
 7 /conditions/im… http… int16     little     blosc      <int> <int [2]> <dbl>  
 8 /conditions/im… http… int16     little     blosc      <int> <int [2]> <dbl>  
 9 /conditions/im… http… int8      <NA>       blosc      <int> <int [2]> <dbl>  
10 /conditions/im… http… int32     little     blosc      <int> <int [2]> <dbl>  
# ℹ 36 more rows
…
